Tempo_conversao_AD/F0001CH2.CSV

Record Length,2.500000e+03,,   0.000550000000,   0.00000,
Sample Interval,4.000000e-08,,   0.000550040000,   0.08000,
Trigger Point,-1.375000000000e+04,,   0.000550080000,   0.08000,
,,,   0.000550120000,   0.00000,
,,,   0.000550160000,   0.16000,
,,,   0.000550200000,   0.00000,
Source,CH2,,   0.000550240000,   0.08000,
Vertical Units,V,,   0.000550280000,   0.08000,
Vertical Scale,2.000000e+00,,   0.000550320000,   0.00000,
Vertical Offset,0.000000e+00,,   0.000550360000,   0.08000,
Horizontal Units,s,,   0.000550400000,   0.00000,
Horizontal Scale,1.000000e-05,,   0.000550440000,   0.00000,
Pt Fmt,Y,,   0.000550480000,   0.00000,
Yzero,0.000000e+00,,   0.000550520000,   0.00000,
Probe Atten,1.000000e+01,,   0.000550560000,   0.08000,
Model Number,TBS1102B-EDU,,   0.000550600000,   0.08000,
Serial Number,C014461,,   0.000550640000,   0.00000,
Firmware Version,FV:v4.0,,   0.000550680000,   0.08000,
,,,0.000550720000,   0.00000,
,,,0.000550760000,   0.16000,
,,,0.000550800000,   0.00000,
,,,0.000550840000,   0.08000,
,,,0.000550880000,   0.00000,
,,,0.000550920000,   0.00000,
,,,0.000550960000,   0.00000,
,,,0.000551000000,  -0.08000,
,,,0.000551040000,   0.00000,
,,,0.000551080000,   0.00000,
,,,0.000551120000,   0.08000,
,,,0.000551160000,   0.00000,
,,,0.000551200000,   0.08000,
,,,0.000551240000,   0.08000,
,,,0.000551280000,   0.00000,
,,,0.000551320000,   0.08000,
,,,0.000551360000,   0.00000,
,,,0.000551400000,   0.00000,
,,,0.000551440000,   0.00000,
,,,0.000551480000,   0.00000,
,,,0.000551520000,   0.00000,
,,,0.000551560000,   0.08000,
,,,0.000551600000,   0.08000,
,,,0.000551640000,   0.08000,
,,,0.000551680000,   0.00000,
,,,0.000551720000,   0.08000,
,,,0.000551760000,   0.00000,
,,,0.000551800000,   0.00000,
,,,0.000551840000,   0.08000,
,,,0.000551880000,   0.00000,
,,,0.000551920000,   0.00000,
,,,0.000551960000,   0.08000,
,,,0.000552000000,   0.08000,
,,,0.000552040000,   0.00000,
,,,0.000552080000,   0.00000,
,,,0.000552120000,   0.00000,
,,,0.000552160000,   0.08000,
,,,0.000552200000,   0.00000,
,,,0.000552240000,   0.08000,
,,,0.000552280000,   0.00000,
,,,0.000552320000,   0.08000,
,,,0.000552360000,   0.08000,
,,,0.000552400000,   0.08000,
,,,0.000552440000,   0.00000,
,,,0.000552480000,   0.08000,
,,,0.000552520000,   0.00000,
,,,0.000552560000,   0.00000,
,,,0.000552600000,   0.00000,
,,,0.000552640000,   0.08000,
,,,0.000552680000,   0.00000,
,,,0.000552720000,   0.00000,
,,,0.000552760000,   0.00000,
,,,0.000552800000,  -0.08000,
,,,0.000552840000,   0.00000,
,,,0.000552880000,   0.00000,
,,,0.000552920000,  -0.08000,
,,,0.000552960000,   0.00000,
,,,0.000553000000,   0.08000,
,,,0.000553040000,   0.08000,
,,,0.000553080000,   0.00000,
,,,0.000553120000,  -0.08000,
,,,0.000553160000,   0.08000,
,,,0.000553200000,   0.00000,
,,,0.000553240000,   0.00000,
,,,0.000553280000,   0.08000,
,,,0.000553320000,   0.08000,
,,,0.000553360000,   0.00000,
,,,0.000553400000,   0.00000,
,,,0.000553440000,   0.00000,
,,,0.000553480000,   0.00000,
,,,0.000553520000,   0.08000,
,,,0.000553560000,   0.08000,
,,,0.000553600000,   0.08000,
,,,0.000553640000,   0.00000,
,,,0.000553680000,   0.00000,
,,,0.000553720000,  -0.08000,
,,,0.000553760000,  -0.08000,
,,,0.000553800000,  -0.08000,
,,,0.000553840000,   0.08000,
,,,0.000553880000,   0.08000,
,,,0.000553920000,   0.00000,
,,,0.000553960000,   0.00000,
,,,0.000554000000,   0.00000,
,,,0.000554040000,   0.08000,
,,,0.000554080000,   0.00000,
,,,0.000554120000,   0.00000,
,,,0.000554160000,   0.08000,
,,,0.000554200000,   0.08000,
,,,0.000554240000,   0.08000,
,,,0.000554280000,   0.00000,
,,,0.000554320000,   0.00000,
,,,0.000554360000,   0.00000,
,,,0.000554400000,   0.00000,
,,,0.000554440000,   0.08000,
,,,0.000554480000,   0.08000,
,,,0.000554520000,   0.08000,
,,,0.000554560000,   0.08000,
,,,0.000554600000,   0.08000,
,,,0.000554640000,   0.00000,
,,,0.000554680000,   0.00000,
,,,0.000554720000,   0.08000,
,,,0.000554760000,  -0.08000,
,,,0.000554800000,   0.08000,
,,,0.000554840000,   0.00000,
,,,0.000554880000,   0.00000,
,,,0.000554920000,   0.00000,
,,,0.000554960000,   0.00000,
,,,0.000555000000,   0.08000,
,,,0.000555040000,   0.00000,
,,,0.000555080000,   0.00000,
,,,0.000555120000,   0.00000,
,,,0.000555160000,   0.00000,
,,,0.000555200000,   0.00000,
,,,0.000555240000,   0.00000,
,,,0.000555280000,   0.00000,
,,,0.000555320000,   0.00000,
,,,0.000555360000,   0.16000,
,,,0.000555400000,   0.00000,
,,,0.000555440000,  -0.08000,
,,,0.000555480000,   0.08000,
,,,0.000555520000,   0.08000,
,,,0.000555560000,   0.00000,
,,,0.000555600000,   0.00000,
,,,0.000555640000,   0.00000,
,,,0.000555680000,   0.08000,
,,,0.000555720000,   0.00000,
,,,0.000555760000,   0.00000,
,,,0.000555800000,   0.08000,
,,,0.000555840000,   0.00000,
,,,0.000555880000,   0.08000,
,,,0.000555920000,   0.16000,
,,,0.000555960000,   0.08000,
,,,0.000556000000,   0.00000,
,,,0.000556040000,   0.00000,
,,,0.000556080000,   0.00000,
,,,0.000556120000,   0.08000,
,,,0.000556160000,   0.08000,
,,,0.000556200000,   0.00000,
,,,0.000556240000,   0.00000,
,,,0.000556280000,   0.00000,
,,,0.000556320000,   0.08000,
,,,0.000556360000,   0.08000,
,,,0.000556400000,   0.08000,
,,,0.000556440000,   0.00000,
,,,0.000556480000,   0.00000,
,,,0.000556520000,   0.00000,
,,,0.000556560000,   0.00000,
,,,0.000556600000,   0.08000,
,,,0.000556640000,   0.00000,
,,,0.000556680000,   0.00000,
,,,0.000556720000,   0.00000,
,,,0.000556760000,   0.00000,
,,,0.000556800000,   0.08000,
,,,0.000556840000,   0.08000,
,,,0.000556880000,   0.00000,
,,,0.000556920000,   0.00000,
,,,0.000556960000,   0.08000,
,,,0.000557000000,   0.00000,
,,,0.000557040000,   0.08000,
,,,0.000557080000,   0.00000,
,,,0.000557120000,   0.00000,
,,,0.000557160000,   0.00000,
,,,0.000557200000,   0.00000,
,,,0.000557240000,   0.08000,
,,,0.000557280000,   0.08000,
,,,0.000557320000,   0.08000,
,,,0.000557360000,   0.08000,
,,,0.000557400000,   0.08000,
,,,0.000557440000,   0.16000,
,,,0.000557480000,   0.08000,
,,,0.000557520000,   0.00000,
,,,0.000557560000,   0.08000,
,,,0.000557600000,   0.08000,
,,,0.000557640000,  -0.08000,
,,,0.000557680000,   0.00000,
,,,0.000557720000,   0.00000,
,,,0.000557760000,   0.08000,
,,,0.000557800000,   0.08000,
,,,0.000557840000,   0.00000,
,,,0.000557880000,   0.08000,
,,,0.000557920000,   0.00000,
,,,0.000557960000,   0.00000,
,,,0.000558000000,   0.08000,
,,,0.000558040000,   0.00000,
,,,0.000558080000,   0.08000,
,,,0.000558120000,   0.00000,
,,,0.000558160000,   0.08000,
,,,0.000558200000,   0.00000,
,,,0.000558240000,   0.00000,
,,,0.000558280000,   0.08000,
,,,0.000558320000,   0.00000,
,,,0.000558360000,   3.12000,
,,,0.000558400000,   3.20000,
,,,0.000558440000,   3.12000,
,,,0.000558480000,   3.12000,
,,,0.000558520000,   3.04000,
,,,0.000558560000,   3.12000,
,,,0.000558600000,   3.12000,
,,,0.000558640000,   3.12000,
,,,0.000558680000,   3.12000,
,,,0.000558720000,   3.12000,
,,,0.000558760000,   3.12000,
,,,0.000558800000,   3.12000,
,,,0.000558840000,   3.04000,
,,,0.000558880000,   3.12000,
,,,0.000558920000,   3.12000,
,,,0.000558960000,   3.12000,
,,,0.000559000000,   3.04000,
,,,0.000559040000,   3.04000,
,,,0.000559080000,   3.12000,
,,,0.000559120000,   3.12000,
,,,0.000559160000,   3.12000,
,,,0.000559200000,   3.12000,
,,,0.000559240000,   3.12000,
,,,0.000559280000,   3.12000,
,,,0.000559320000,   3.12000,
,,,0.000559360000,   3.04000,
,,,0.000559400000,   3.04000,
,,,0.000559440000,   3.12000,
,,,0.000559480000,   3.12000,
,,,0.000559520000,  -0.24000,
,,,0.000559560000,   0.16000,
,,,0.000559600000,   0.08000,
,,,0.000559640000,   0.08000,
,,,0.000559680000,   0.16000,
,,,0.000559720000,   0.08000,
,,,0.000559760000,   0.08000,
,,,0.000559800000,   0.00000,
,,,0.000559840000,   0.08000,
,,,0.000559880000,   0.08000,
,,,0.000559920000,   0.00000,
,,,0.000559960000,   0.00000,
,,,0.000560000000,   0.16000,
,,,0.000560040000,   0.08000,
,,,0.000560080000,   0.08000,
,,,0.000560120000,   0.08000,
,,,0.000560160000,   0.08000,
,,,0.000560200000,   0.08000,
,,,0.000560240000,   0.08000,
,,,0.000560280000,   0.08000,
,,,0.000560320000,   0.08000,
,,,0.000560360000,   0.16000,
,,,0.000560400000,   0.00000,
,,,0.000560440000,   0.08000,
,,,0.000560480000,   0.08000,
,,,0.000560520000,   0.08000,
,,,0.000560560000,   0.16000,
,,,0.000560600000,   0.08000,
,,,0.000560640000,   0.00000,
,,,0.000560680000,   0.00000,
,,,0.000560720000,   0.08000,
,,,0.000560760000,   0.00000,
,,,0.000560800000,   0.08000,
,,,0.000560840000,   0.00000,
,,,0.000560880000,   0.00000,
,,,0.000560920000,   0.08000,
,,,0.000560960000,   0.08000,
,,,0.000561000000,   0.08000,
,,,0.000561040000,   0.08000,
,,,0.000561080000,   0.16000,
,,,0.000561120000,   0.00000,
,,,0.000561160000,   0.00000,
,,,0.000561200000,   0.08000,
,,,0.000561240000,   0.00000,
,,,0.000561280000,   0.08000,
,,,0.000561320000,   0.16000,
,,,0.000561360000,   0.00000,
,,,0.000561400000,   0.00000,
,,,0.000561440000,   0.08000,
,,,0.000561480000,   0.00000,
,,,0.000561520000,   0.08000,
,,,0.000561560000,   0.08000,
,,,0.000561600000,   0.00000,
,,,0.000561640000,   0.08000,
,,,0.000561680000,   0.00000,
,,,0.000561720000,   0.08000,
,,,0.000561760000,   0.08000,
,,,0.000561800000,   0.08000,
,,,0.000561840000,   0.08000,
,,,0.000561880000,   0.16000,
,,,0.000561920000,   0.08000,
,,,0.000561960000,   0.08000,
,,,0.000562000000,   0.00000,
,,,0.000562040000,   0.16000,
,,,0.000562080000,   0.08000,
,,,0.000562120000,   0.08000,
,,,0.000562160000,   0.16000,
,,,0.000562200000,   0.00000,
,,,0.000562240000,   0.08000,
,,,0.000562280000,   0.00000,
,,,0.000562320000,  -0.08000,
,,,0.000562360000,   0.08000,
,,,0.000562400000,   0.08000,
,,,0.000562440000,   0.08000,
,,,0.000562480000,   0.08000,
,,,0.000562520000,   0.08000,
,,,0.000562560000,   0.08000,
,,,0.000562600000,   0.00000,
,,,0.000562640000,   0.08000,
,,,0.000562680000,   0.00000,
,,,0.000562720000,   0.08000,
,,,0.000562760000,   0.08000,
,,,0.000562800000,   0.00000,
,,,0.000562840000,   0.08000,
,,,0.000562880000,   0.08000,
,,,0.000562920000,   0.08000,
,,,0.000562960000,   0.00000,
,,,0.000563000000,   0.00000,
,,,0.000563040000,  -0.08000,
,,,0.000563080000,   0.08000,
,,,0.000563120000,   0.08000,
,,,0.000563160000,   0.00000,
,,,0.000563200000,   0.00000,
,,,0.000563240000,   0.00000,
,,,0.000563280000,   0.08000,
,,,0.000563320000,   0.08000,
,,,0.000563360000,   0.08000,
,,,0.000563400000,   0.00000,
,,,0.000563440000,   0.08000,
,,,0.000563480000,   0.08000,
,,,0.000563520000,   0.08000,
,,,0.000563560000,   0.08000,
,,,0.000563600000,   0.08000,
,,,0.000563640000,   0.08000,
,,,0.000563680000,   0.00000,
,,,0.000563720000,   0.00000,
,,,0.000563760000,   0.00000,
,,,0.000563800000,   0.16000,
,,,0.000563840000,   0.00000,
,,,0.000563880000,   0.00000,
,,,0.000563920000,   0.08000,
,,,0.000563960000,   0.08000,
,,,0.000564000000,   0.08000,
,,,0.000564040000,   0.08000,
,,,0.000564080000,   0.00000,
,,,0.000564120000,   0.08000,
,,,0.000564160000,   0.00000,
,,,0.000564200000,   0.00000,
,,,0.000564240000,   0.08000,
,,,0.000564280000,   0.08000,
,,,0.000564320000,   0.16000,
,,,0.000564360000,   0.08000,
,,,0.000564400000,   0.00000,
,,,0.000564440000,   0.00000,
,,,0.000564480000,   0.00000,
,,,0.000564520000,   0.08000,
,,,0.000564560000,   0.00000,
,,,0.000564600000,   0.00000,
,,,0.000564640000,   0.00000,
,,,0.000564680000,   0.00000,
,,,0.000564720000,   0.08000,
,,,0.000564760000,   0.08000,
,,,0.000564800000,   0.00000,
,,,0.000564840000,   0.00000,
,,,0.000564880000,   0.08000,
,,,0.000564920000,   0.08000,
,,,0.000564960000,   0.00000,
,,,0.000565000000,   0.00000,
,,,0.000565040000,   0.08000,
,,,0.000565080000,  -0.08000,
,,,0.000565120000,   0.00000,
,,,0.000565160000,   0.16000,
,,,0.000565200000,   0.08000,
,,,0.000565240000,   0.08000,
,,,0.000565280000,   0.08000,
,,,0.000565320000,   0.00000,
,,,0.000565360000,   0.08000,
,,,0.000565400000,  -0.08000,
,,,0.000565440000,   0.08000,
,,,0.000565480000,   0.08000,
,,,0.000565520000,   0.00000,
,,,0.000565560000,   0.00000,
,,,0.000565600000,   0.00000,
,,,0.000565640000,   0.08000,
,,,0.000565680000,   0.00000,
,,,0.000565720000,   0.08000,
,,,0.000565760000,   0.08000,
,,,0.000565800000,   0.00000,
,,,0.000565840000,   0.00000,
,,,0.000565880000,   0.00000,
,,,0.000565920000,   0.00000,
,,,0.000565960000,   0.00000,
,,,0.000566000000,   0.00000,
,,,0.000566040000,   0.00000,
,,,0.000566080000,   0.08000,
,,,0.000566120000,   0.08000,
,,,0.000566160000,   0.08000,
,,,0.000566200000,   0.08000,
,,,0.000566240000,   0.08000,
,,,0.000566280000,   0.00000,
,,,0.000566320000,   0.08000,
,,,0.000566360000,   0.00000,
,,,0.000566400000,   0.08000,
,,,0.000566440000,   0.00000,
,,,0.000566480000,   0.08000,
,,,0.000566520000,   0.00000,
,,,0.000566560000,   0.00000,
,,,0.000566600000,   0.08000,
,,,0.000566640000,  -0.08000,
,,,0.000566680000,   0.00000,
,,,0.000566720000,   0.00000,
,,,0.000566760000,   0.08000,
,,,0.000566800000,   0.00000,
,,,0.000566840000,   0.00000,
,,,0.000566880000,   0.08000,
,,,0.000566920000,   0.08000,
,,,0.000566960000,   0.00000,
,,,0.000567000000,   0.00000,
,,,0.000567040000,  -0.08000,
,,,0.000567080000,   0.00000,
,,,0.000567120000,   0.08000,
,,,0.000567160000,   0.08000,
,,,0.000567200000,   0.08000,
,,,0.000567240000,   0.08000,
,,,0.000567280000,   0.00000,
,,,0.000567320000,   0.00000,
,,,0.000567360000,   0.00000,
,,,0.000567400000,   0.08000,
,,,0.000567440000,   0.00000,
,,,0.000567480000,   0.08000,
,,,0.000567520000,   0.00000,
,,,0.000567560000,   0.00000,
,,,0.000567600000,   0.00000,
,,,0.000567640000,   0.00000,
,,,0.000567680000,   0.08000,
,,,0.000567720000,   0.00000,
,,,0.000567760000,   0.00000,
,,,0.000567800000,   0.00000,
,,,0.000567840000,   0.08000,
,,,0.000567880000,   0.00000,
,,,0.000567920000,   0.00000,
,,,0.000567960000,   0.00000,
,,,0.000568000000,   0.08000,
,,,0.000568040000,   0.00000,
,,,0.000568080000,   0.00000,
,,,0.000568120000,   0.00000,
,,,0.000568160000,   0.00000,
,,,0.000568200000,   0.08000,
,,,0.000568240000,   0.08000,
,,,0.000568280000,   0.00000,
,,,0.000568320000,   0.00000,
,,,0.000568360000,   0.00000,
,,,0.000568400000,   0.00000,
,,,0.000568440000,   0.00000,
,,,0.000568480000,   0.08000,
,,,0.000568520000,   0.00000,
,,,0.000568560000,   0.00000,
,,,0.000568600000,   0.00000,
,,,0.000568640000,  -0.08000,
,,,0.000568680000,   0.00000,
,,,0.000568720000,   0.00000,
,,,0.000568760000,   0.00000,
,,,0.000568800000,   0.00000,
,,,0.000568840000,   0.08000,
,,,0.000568880000,   0.00000,
,,,0.000568920000,   0.00000,
,,,0.000568960000,   0.00000,
,,,0.000569000000,   0.08000,
,,,0.000569040000,  -0.08000,
,,,0.000569080000,   0.00000,
,,,0.000569120000,   0.00000,
,,,0.000569160000,   0.00000,
,,,0.000569200000,   0.00000,
,,,0.000569240000,   0.08000,
,,,0.000569280000,   0.00000,
,,,0.000569320000,   0.00000,
,,,0.000569360000,   0.08000,
,,,0.000569400000,   0.08000,
,,,0.000569440000,   0.00000,
,,,0.000569480000,   0.00000,
,,,0.000569520000,   0.08000,
,,,0.000569560000,   0.00000,
,,,0.000569600000,   0.00000,
,,,0.000569640000,   0.00000,
,,,0.000569680000,   0.08000,
,,,0.000569720000,   0.08000,
,,,0.000569760000,   0.08000,
,,,0.000569800000,   0.08000,
,,,0.000569840000,   0.00000,
,,,0.000569880000,   0.08000,
,,,0.000569920000,  -0.08000,
,,,0.000569960000,   0.08000,
,,,0.000570000000,   0.08000,
,,,0.000570040000,   0.00000,
,,,0.000570080000,   0.24000,
,,,0.000570120000,   0.00000,
,,,0.000570160000,   0.08000,
,,,0.000570200000,   0.00000,
,,,0.000570240000,  -0.08000,
,,,0.000570280000,   0.08000,
,,,0.000570320000,   0.00000,
,,,0.000570360000,   0.00000,
,,,0.000570400000,   0.00000,
,,,0.000570440000,   0.08000,
,,,0.000570480000,   0.08000,
,,,0.000570520000,   0.00000,
,,,0.000570560000,   0.16000,
,,,0.000570600000,   0.08000,
,,,0.000570640000,   0.00000,
,,,0.000570680000,   0.00000,
,,,0.000570720000,   0.00000,
,,,0.000570760000,   0.00000,
,,,0.000570800000,   0.00000,
,,,0.000570840000,   0.08000,
,,,0.000570880000,   0.00000,
,,,0.000570920000,   0.08000,
,,,0.000570960000,   0.00000,
,,,0.000571000000,   0.08000,
,,,0.000571040000,   0.00000,
,,,0.000571080000,  -0.08000,
,,,0.000571120000,   0.00000,
,,,0.000571160000,   0.00000,
,,,0.000571200000,   0.08000,
,,,0.000571240000,   0.08000,
,,,0.000571280000,   0.00000,
,,,0.000571320000,   0.00000,
,,,0.000571360000,   0.08000,
,,,0.000571400000,   0.08000,
,,,0.000571440000,   0.00000,
,,,0.000571480000,   0.00000,
,,,0.000571520000,   0.08000,
,,,0.000571560000,   0.00000,
,,,0.000571600000,   0.00000,
,,,0.000571640000,   0.00000,
,,,0.000571680000,  -0.08000,
,,,0.000571720000,   0.08000,
,,,0.000571760000,   0.00000,
,,,0.000571800000,   0.00000,
,,,0.000571840000,   0.08000,
,,,0.000571880000,   0.00000,
,,,0.000571920000,   0.00000,
,,,0.000571960000,   0.00000,
,,,0.000572000000,   0.08000,
,,,0.000572040000,   0.00000,
,,,0.000572080000,   0.00000,
,,,0.000572120000,   0.08000,
,,,0.000572160000,   0.00000,
,,,0.000572200000,   0.08000,
,,,0.000572240000,   0.00000,
,,,0.000572280000,   0.16000,
,,,0.000572320000,   0.08000,
,,,0.000572360000,   0.00000,
,,,0.000572400000,   0.08000,
,,,0.000572440000,   0.00000,
,,,0.000572480000,   0.00000,
,,,0.000572520000,   0.00000,
,,,0.000572560000,   0.00000,
,,,0.000572600000,   0.00000,
,,,0.000572640000,   0.00000,
,,,0.000572680000,   0.08000,
,,,0.000572720000,   0.00000,
,,,0.000572760000,   0.08000,
,,,0.000572800000,   0.08000,
,,,0.000572840000,   0.08000,
,,,0.000572880000,   0.00000,
,,,0.000572920000,   0.00000,
,,,0.000572960000,   0.08000,
,,,0.000573000000,  -0.08000,
,,,0.000573040000,   0.08000,
,,,0.000573080000,   0.08000,
,,,0.000573120000,   0.08000,
,,,0.000573160000,   0.00000,
,,,0.000573200000,   0.08000,
,,,0.000573240000,   0.08000,
,,,0.000573280000,   0.08000,
,,,0.000573320000,   0.08000,
,,,0.000573360000,   0.08000,
,,,0.000573400000,   0.08000,
,,,0.000573440000,   0.08000,
,,,0.000573480000,   0.00000,
,,,0.000573520000,   0.00000,
,,,0.000573560000,   0.00000,
,,,0.000573600000,   0.08000,
,,,0.000573640000,   0.16000,
,,,0.000573680000,   0.08000,
,,,0.000573720000,   0.08000,
,,,0.000573760000,   0.00000,
,,,0.000573800000,   0.00000,
,,,0.000573840000,   0.00000,
,,,0.000573880000,   0.00000,
,,,0.000573920000,   0.08000,
,,,0.000573960000,   0.00000,
,,,0.000574000000,   0.00000,
,,,0.000574040000,   0.08000,
,,,0.000574080000,   0.00000,
,,,0.000574120000,   0.08000,
,,,0.000574160000,   0.08000,
,,,0.000574200000,   0.00000,
,,,0.000574240000,   0.08000,
,,,0.000574280000,   0.00000,
,,,0.000574320000,   0.00000,
,,,0.000574360000,   0.08000,
,,,0.000574400000,   0.00000,
,,,0.000574440000,   0.00000,
,,,0.000574480000,   0.00000,
,,,0.000574520000,   0.08000,
,,,0.000574560000,   0.00000,
,,,0.000574600000,   0.08000,
,,,0.000574640000,   0.00000,
,,,0.000574680000,   0.00000,
,,,0.000574720000,   0.00000,
,,,0.000574760000,   0.00000,
,,,0.000574800000,   0.00000,
,,,0.000574840000,  -0.08000,
,,,0.000574880000,   0.00000,
,,,0.000574920000,   0.08000,
,,,0.000574960000,   0.08000,
,,,0.000575000000,   0.00000,
,,,0.000575040000,  -0.08000,
,,,0.000575080000,   0.00000,
,,,0.000575120000,   0.00000,
,,,0.000575160000,   0.08000,
,,,0.000575200000,   0.00000,
,,,0.000575240000,   0.00000,
,,,0.000575280000,   0.08000,
,,,0.000575320000,   0.08000,
,,,0.000575360000,   0.00000,
,,,0.000575400000,   0.08000,
,,,0.000575440000,   0.08000,
,,,0.000575480000,   0.00000,
,,,0.000575520000,   0.00000,
,,,0.000575560000,   0.00000,
,,,0.000575600000,   0.16000,
,,,0.000575640000,   0.00000,
,,,0.000575680000,   0.00000,
,,,0.000575720000,   0.00000,
,,,0.000575760000,   0.00000,
,,,0.000575800000,   0.00000,
,,,0.000575840000,   0.08000,
,,,0.000575880000,   0.08000,
,,,0.000575920000,  -0.08000,
,,,0.000575960000,   0.08000,
,,,0.000576000000,   0.00000,
,,,0.000576040000,   0.00000,
,,,0.000576080000,   0.00000,
,,,0.000576120000,   0.08000,
